{
  "version": "1.1",
  "licenses": [
    {
      "count": 4,
      "name": "BSD"
    },
    {
      "count": 4,
      "name": "MIT"
    },
    {
      "count": 1,
      "name": "Apache 2.0"
    },
    {
      "count": 1,
      "name": "Copyright (c) 2015, Julien Fache"
    },
    {
      "count": 1,
      "name": "New BSD"
    },
    {
      "count": 1,
      "name": "Other/Proprietary License"
    },
    {
      "count": 1,
      "name": "Python Software Foundation License"
    }
  ],
  "dependencies": [
    {
      "licenses": [
        {
          "name": "BSD",
          "url": "http://en.wikipedia.org/wiki/BSD_licenses#4-clause_license_.28original_.22BSD_License.22.29"
        }
      ],
      "license": {
        "name": "BSD",
        "url": "http://en.wikipedia.org/wiki/BSD_licenses#4-clause_license_.28original_.22BSD_License.22.29"
      },
      "dependency": {
        "name": "Django",
        "url": "https://www.djangoproject.com/",
        "description": "A high-level Python Web framework that encourages rapid development and clean, pragmatic design.",
        "pathes": [
          "."
        ]
      }
    },
    {
      "licenses": [
        {
          "name": "Other/Proprietary License",
          "url": ""
        }
      ],
      "license": {
        "name": "Other/Proprietary License"
      },
      "dependency": {
        "name": "Pillow",
        "url": "https://python-pillow.org",
        "description": "Python Imaging Library (Fork)",
        "pathes": [
          "."
        ]
      }
    },
    {
      "licenses": [
        {
          "name": "MIT",
          "url": "http://opensource.org/licenses/mit-license"
        }
      ],
      "license": {
        "name": "MIT",
        "url": "http://opensource.org/licenses/mit-license"
      },
      "dependency": {
        "name": "beautifulsoup4",
        "url": "http://www.crummy.com/software/BeautifulSoup/bs4/",
        "description": "Screen-scraping library",
        "pathes": [
          "."
        ]
      }
    },
    {
      "licenses": [
        {
          "name": "BSD",
          "url": "http://en.wikipedia.org/wiki/BSD_licenses#4-clause_license_.28original_.22BSD_License.22.29"
        }
      ],
      "license": {
        "name": "BSD",
        "url": "http://en.wikipedia.org/wiki/BSD_licenses#4-clause_license_.28original_.22BSD_License.22.29"
      },
      "dependency": {
        "name": "django-contrib-comments",
        "url": "https://github.com/django/django-contrib-comments",
        "description": "The code formerly known as django.contrib.comments.",
        "pathes": [
          "."
        ]
      }
    },
    {
      "licenses": [
        {
          "name": "BSD",
          "url": "http://en.wikipedia.org/wiki/BSD_licenses#4-clause_license_.28original_.22BSD_License.22.29"
        }
      ],
      "license": {
        "name": "BSD",
        "url": "http://en.wikipedia.org/wiki/BSD_licenses#4-clause_license_.28original_.22BSD_License.22.29"
      },
      "dependency": {
        "name": "django-js-asset",
        "url": "https://github.com/matthiask/django-js-asset/",
        "description": "script tag with additional attributes for django.forms.Media",
        "pathes": [
          "."
        ]
      }
    },
    {
      "licenses": [
        {
          "name": "MIT",
          "url": "http://opensource.org/licenses/mit-license"
        }
      ],
      "license": {
        "name": "MIT",
        "url": "http://opensource.org/licenses/mit-license"
      },
      "dependency": {
        "name": "django-mptt",
        "url": "http://github.com/django-mptt/django-mptt",
        "description": "Utilities for implementing Modified Preorder Tree Traversal with your Django Models and working with trees of Model instances.",
        "pathes": [
          "."
        ]
      }
    },
    {
      "licenses": [
        {
          "name": "BSD",
          "url": "http://en.wikipedia.org/wiki/BSD_licenses#4-clause_license_.28original_.22BSD_License.22.29"
        }
      ],
      "license": {
        "name": "BSD",
        "url": "http://en.wikipedia.org/wiki/BSD_licenses#4-clause_license_.28original_.22BSD_License.22.29"
      },
      "dependency": {
        "name": "django-tagging",
        "url": "https://github.com/Fantomas42/django-tagging",
        "description": "Generic tagging application for Django",
        "pathes": [
          "."
        ]
      }
    },
    {
      "licenses": [
        {
          "name": "New BSD",
          "url": "http://opensource.org/licenses/BSD-3-Clause"
        }
      ],
      "license": {
        "name": "New BSD",
        "url": "http://opensource.org/licenses/BSD-3-Clause"
      },
      "dependency": {
        "name": "django-xmlrpc",
        "url": "https://github.com/Fantomas42/django-xmlrpc",
        "description": "XML-RPC Server App for the Django framework.",
        "pathes": [
          "."
        ]
      }
    },
    {
      "licenses": [
        {
          "name": "Copyright (c) 2015, Julien Fache",
          "url": ""
        }
      ],
      "license": {
        "name": "Copyright (c) 2015, Julien Fache"
      },
      "dependency": {
        "name": "mots-vides",
        "url": "https://github.com/Fantomas42/mots-vides",
        "description": "Python library for managing stop words in many languages.",
        "pathes": [
          "."
        ]
      }
    },
    {
      "licenses": [
        {
          "name": "MIT",
          "url": "http://opensource.org/licenses/mit-license"
        }
      ],
      "license": {
        "name": "MIT",
        "url": "http://opensource.org/licenses/mit-license"
      },
      "dependency": {
        "name": "pyparsing",
        "url": "http://pyparsing.wikispaces.com/",
        "description": "Python parsing module",
        "pathes": [
          "."
        ]
      }
    },
    {
      "licenses": [
        {
          "name": "MIT",
          "url": "http://opensource.org/licenses/mit-license"
        }
      ],
      "license": {
        "name": "MIT",
        "url": "http://opensource.org/licenses/mit-license"
      },
      "dependency": {
        "name": "pytz",
        "url": "http://pythonhosted.org/pytz",
        "description": "World timezone definitions, modern and historical",
        "pathes": [
          "."
        ]
      }
    },
    {
      "licenses": [
        {
          "name": "Python Software Foundation License",
          "url": "http://hg.python.org/cpython/raw-file/89ce323357db/LICENSE"
        }
      ],
      "license": {
        "name": "Python Software Foundation License",
        "url": "http://hg.python.org/cpython/raw-file/89ce323357db/LICENSE"
      },
      "dependency": {
        "name": "regex",
        "url": "https://bitbucket.org/mrabarnett/mrab-regex",
        "description": "Alternative regular expression module, to replace re.",
        "pathes": [
          "."
        ]
      }
    },
    {
      "licenses": [
        {
          "name": "Apache 2.0",
          "url": "http://www.apache.org/licenses/LICENSE-2.0.txt"
        }
      ],
      "license": {
        "name": "Apache 2.0",
        "url": "http://www.apache.org/licenses/LICENSE-2.0.txt"
      },
      "dependency": {
        "name": "tornado",
        "url": "http://www.tornadoweb.org/",
        "description": "Tornado is a Python web framework and asynchronous networking library, originally developed at FriendFeed.",
        "pathes": [
          "."
        ]
      }
    }
  ]
}