{
  "version": "1.1",
  "licenses": [
    {
      "count": 7,
      "name": "MIT"
    },
    {
      "count": 2,
      "name": "unknown"
    },
    {
      "count": 1,
      "name": "ISC"
    },
    {
      "count": 1,
      "name": "Simplified BSD, New BSD, MIT, ISC, Apache 2.0"
    }
  ],
  "dependencies": [
    {
      "licenses": [
        {
          "name": "Apache 2.0",
          "url": "http://www.apache.org/licenses/LICENSE-2.0.txt"
        },
        {
          "name": "ISC",
          "url": "http://en.wikipedia.org/wiki/ISC_license"
        },
        {
          "name": "MIT",
          "url": "http://opensource.org/licenses/mit-license"
        },
        {
          "name": "New BSD",
          "url": "http://opensource.org/licenses/BSD-3-Clause"
        },
        {
          "name": "Simplified BSD",
          "url": "http://opensource.org/licenses/bsd-license"
        }
      ],
      "license": {
        "name": "Simplified BSD, New BSD, MIT, ISC, Apache 2.0",
        "url": "http://en.wikipedia.org/wiki/ISC_license"
      },
      "dependency": {
        "name": "cli",
        "url": "https://github.com/npm/cli",
        "description": "",
        "pathes": [
          "."
        ]
      }
    },
    {
      "licenses": [
        {
          "name": "unknown",
          "url": ""
        }
      ],
      "license": {
        "name": "unknown"
      },
      "dependency": {
        "name": "debug",
        "url": "https://github.com/wixo/debug",
        "description": "",
        "pathes": [
          "."
        ]
      }
    },
    {
      "licenses": [
        {
          "name": "MIT",
          "url": "http://opensource.org/licenses/mit-license"
        }
      ],
      "license": {
        "name": "MIT",
        "url": "http://opensource.org/licenses/mit-license"
      },
      "dependency": {
        "name": "ev-emitter",
        "url": "https://github.com/metafizzy/ev-emitter",
        "description": "lil' event emitter",
        "pathes": [
          "."
        ]
      }
    },
    {
      "licenses": [
        {
          "name": "MIT",
          "url": "http://opensource.org/licenses/mit-license"
        }
      ],
      "license": {
        "name": "MIT",
        "url": "http://opensource.org/licenses/mit-license"
      },
      "dependency": {
        "name": "fizzy-ui-utils",
        "url": "https://github.com/metafizzy/fizzy-ui-utils",
        "description": "UI utilities",
        "pathes": [
          "."
        ]
      }
    },
    {
      "licenses": [
        {
          "name": "MIT",
          "url": "http://opensource.org/licenses/mit-license"
        }
      ],
      "license": {
        "name": "MIT",
        "url": "http://opensource.org/licenses/mit-license"
      },
      "dependency": {
        "name": "get-size",
        "url": "https://github.com/desandro/get-size",
        "description": "measures element size",
        "pathes": [
          "."
        ]
      }
    },
    {
      "licenses": [
        {
          "name": "MIT",
          "url": "http://opensource.org/licenses/mit-license"
        }
      ],
      "license": {
        "name": "MIT",
        "url": "http://opensource.org/licenses/mit-license"
      },
      "dependency": {
        "name": "jquery",
        "url": "https://github.com/jquery/jquery-dist",
        "description": "",
        "pathes": [
          "."
        ]
      }
    },
    {
      "licenses": [
        {
          "name": "ISC",
          "url": "http://en.wikipedia.org/wiki/ISC_license"
        }
      ],
      "license": {
        "name": "ISC",
        "url": "http://en.wikipedia.org/wiki/ISC_license"
      },
      "dependency": {
        "name": "js-bower",
        "description": "",
        "pathes": [
          "."
        ]
      }
    },
    {
      "licenses": [
        {
          "name": "MIT",
          "url": "http://opensource.org/licenses/mit-license"
        }
      ],
      "license": {
        "name": "MIT",
        "url": "http://opensource.org/licenses/mit-license"
      },
      "dependency": {
        "name": "masonry-layout",
        "url": "https://masonry.desandro.com",
        "description": "Cascading grid layout library",
        "pathes": [
          "."
        ]
      }
    },
    {
      "licenses": [
        {
          "name": "MIT",
          "url": "http://opensource.org/licenses/mit-license"
        }
      ],
      "license": {
        "name": "MIT",
        "url": "http://opensource.org/licenses/mit-license"
      },
      "dependency": {
        "name": "matches-selector",
        "url": "https://github.com/desandro/matches-selector",
        "description": "matches/matchesSelector helper",
        "pathes": [
          "."
        ]
      }
    },
    {
      "licenses": [
        {
          "name": "MIT",
          "url": "http://opensource.org/licenses/mit-license"
        }
      ],
      "license": {
        "name": "MIT",
        "url": "http://opensource.org/licenses/mit-license"
      },
      "dependency": {
        "name": "outlayer",
        "url": "https://github.com/metafizzy/outlayer",
        "description": "the brains and guts of a layout library",
        "pathes": [
          "."
        ]
      }
    },
    {
      "licenses": [
        {
          "name": "unknown",
          "url": ""
        }
      ],
      "license": {
        "name": "unknown"
      },
      "dependency": {
        "name": "stimulus.umd",
        "description": "",
        "pathes": [
          "."
        ]
      }
    }
  ]
}